<?xml version="1.0" encoding="UTF-8" standalone="no"?>
<!-- Created with Inkscape (http://www.inkscape.org/) -->

<svg
   xmlns:dc="http://purl.org/dc/elements/1.1/"
   xmlns:cc="http://creativecommons.org/ns#"
   xmlns:rdf="http://www.w3.org/1999/02/22-rdf-syntax-ns#"
   xmlns:svg="http://www.w3.org/2000/svg"
   xmlns="http://www.w3.org/2000/svg"
   xmlns:xlink="http://www.w3.org/1999/xlink"
   xmlns:sodipodi="http://sodipodi.sourceforge.net/DTD/sodipodi-0.dtd"
   xmlns:inkscape="http://www.inkscape.org/namespaces/inkscape"
   id="svg2"
   version="1.1"
   inkscape:version="0.91 r13725"
   width="39"
   height="39"
   viewBox="0 0 39 39"
   sodipodi:docname="check4.svg">
  <metadata
     id="metadata8">
    <rdf:RDF>
      <cc:Work
         rdf:about="">
        <dc:format>image/svg+xml</dc:format>
        <dc:type
           rdf:resource="http://purl.org/dc/dcmitype/StillImage" />
        <dc:title></dc:title>
      </cc:Work>
    </rdf:RDF>
  </metadata>
  <defs
     id="defs6">
    <linearGradient
       inkscape:collect="always"
       id="linearGradient4140">
      <stop
         style="stop-color:#dcdcd7;stop-opacity:1"
         offset="0"
         id="stop4142" />
      <stop
         style="stop-color:#ffffff;stop-opacity:1"
         offset="1"
         id="stop4144" />
    </linearGradient>
    <linearGradient
       inkscape:collect="always"
       xlink:href="#linearGradient4140"
       id="linearGradient4168"
       gradientUnits="userSpaceOnUse"
       x1="3.4703388"
       y1="3.1398306"
       x2="35.860168"
       y2="35.529659" />
    <linearGradient
       inkscape:collect="always"
       xlink:href="#linearGradient4140-7"
       id="linearGradient4146"
       x1="24.457621"
       y1="26.572882"
       x2="3.9661067"
       y2="3.6025426"
       gradientUnits="userSpaceOnUse" />
    <linearGradient
       inkscape:collect="always"
       id="linearGradient4140-7">
      <stop
         style="stop-color:#f8b330;stop-opacity:1"
         offset="0"
         id="stop4142-9" />
      <stop
         style="stop-color:#fff0cf;stop-opacity:1"
         offset="1"
         id="stop4144-8" />
    </linearGradient>
  </defs>
  <sodipodi:namedview
     pagecolor="#ffffff"
     bordercolor="#666666"
     borderopacity="1"
     objecttolerance="10"
     gridtolerance="10"
     guidetolerance="10"
     inkscape:pageopacity="0"
     inkscape:pageshadow="2"
     inkscape:window-width="1366"
     inkscape:window-height="718"
     id="namedview4"
     showgrid="false"
     inkscape:zoom="8.5578051"
     inkscape:cx="15.631889"
     inkscape:cy="13.434454"
     inkscape:window-x="0"
     inkscape:window-y="0"
     inkscape:window-maximized="1"
     inkscape:current-layer="svg2" />
  <rect
     style="opacity:1;fill:url(#linearGradient4168);fill-opacity:1;stroke:#1c5180;stroke-width:3;stroke-miterlimit:4;stroke-dasharray:none;stroke-opacity:1"
     id="rect4138-2"
     width="36"
     height="36"
     x="1.5"
     y="1.5" />
  <path
     style="opacity:1;fill:url(#linearGradient4146);fill-opacity:1;stroke:#1c5180;stroke-width:0;stroke-miterlimit:4;stroke-dasharray:none;stroke-opacity:1"
     d="m 2.9745763,19.466949 0,-16.525424 16.5254237,0 16.525424,0 0,16.525424 0,16.525424 -16.525424,0 -16.5254237,0 0,-16.525424 z m 27.1016947,0.08263 0,-10.4936442 -10.576271,0 -10.5762712,0 0,10.4936442 0,10.493644 10.5762712,0 10.576271,0 0,-10.493644 z"
     id="path4138"
     inkscape:connector-curvature="0" />
  <path
     style="opacity:1;fill:#21a121;fill-opacity:1;stroke:#000000;stroke-width:0;stroke-miterlimit:4;stroke-dasharray:none;stroke-opacity:1"
     d="m 8.9237288,22.5 0,-6.50339 1.5699152,0 1.006356,0 5.025424,4.957627 L 27.5,10 l 2.576271,0.04746 0,6.45254 L 17.5,29.051697 l -2,0 z"
     id="path4142"
     inkscape:connector-curvature="0"
     sodipodi:nodetypes="ccccccccccc" />
</svg>
