<?xml version="1.0" encoding="UTF-8" standalone="no"?>
<!-- Created with Inkscape (http://www.inkscape.org/) -->

<svg
   xmlns:dc="http://purl.org/dc/elements/1.1/"
   xmlns:cc="http://creativecommons.org/ns#"
   xmlns:rdf="http://www.w3.org/1999/02/22-rdf-syntax-ns#"
   xmlns:svg="http://www.w3.org/2000/svg"
   xmlns="http://www.w3.org/2000/svg"
   xmlns:xlink="http://www.w3.org/1999/xlink"
   xmlns:sodipodi="http://sodipodi.sourceforge.net/DTD/sodipodi-0.dtd"
   xmlns:inkscape="http://www.inkscape.org/namespaces/inkscape"
   id="svg2"
   version="1.1"
   inkscape:version="0.92.3 (2405546, 2018-03-11)"
   width="124"
   height="68"
   viewBox="0 0 124 68"
   sodipodi:docname="buttons.svg"
   shape-rendering="crispEdges">
  <metadata
     id="metadata8">
    <rdf:RDF>
      <cc:Work
         rdf:about="">
        <dc:format>image/svg+xml</dc:format>
        <dc:type
           rdf:resource="http://purl.org/dc/dcmitype/StillImage" />
        <dc:title />
      </cc:Work>
    </rdf:RDF>
  </metadata>
  <defs
     id="defs6">
    <linearGradient
       id="linearGradient913"
       inkscape:collect="always">
      <stop
         id="stop905"
         offset="0"
         style="stop-color:#596064;stop-opacity:0.94117647" />
      <stop
         style="stop-color:#4f555a;stop-opacity:1"
         offset="0.46666667"
         id="stop907" />
      <stop
         id="stop909"
         offset="0.46666667"
         style="stop-color:#4b5155;stop-opacity:1" />
      <stop
         id="stop911"
         offset="1"
         style="stop-color:#40464a;stop-opacity:1" />
    </linearGradient>
    <linearGradient
       inkscape:collect="always"
       id="linearGradient4152">
      <stop
         style="stop-color:#eef2f4;stop-opacity:1"
         offset="0"
         id="stop4154" />
      <stop
         id="stop4160"
         offset="0.46666667"
         style="stop-color:#e6ecef;stop-opacity:1" />
      <stop
         style="stop-color:#d4dfe5;stop-opacity:1"
         offset="0.46666667"
         id="stop4162" />
      <stop
         style="stop-color:#c6d3db;stop-opacity:1"
         offset="1"
         id="stop4156" />
    </linearGradient>
    <linearGradient
       inkscape:collect="always"
       xlink:href="#linearGradient913"
       id="linearGradient4158"
       x1="15"
       y1="1"
       x2="15"
       y2="16"
       gradientUnits="userSpaceOnUse" />
    <linearGradient
       inkscape:collect="always"
       xlink:href="#linearGradient913"
       id="linearGradient4216"
       gradientUnits="userSpaceOnUse"
       x1="15"
       y1="1"
       x2="15"
       y2="16" />
    <linearGradient
       inkscape:collect="always"
       xlink:href="#linearGradient913"
       id="linearGradient4295"
       gradientUnits="userSpaceOnUse"
       x1="15"
       y1="1"
       x2="15"
       y2="16" />
    <linearGradient
       inkscape:collect="always"
       xlink:href="#linearGradient913"
       id="linearGradient4357"
       gradientUnits="userSpaceOnUse"
       x1="15"
       y1="1"
       x2="15"
       y2="16" />
    <linearGradient
       inkscape:collect="always"
       xlink:href="#linearGradient4152"
       id="linearGradient4254"
       gradientUnits="userSpaceOnUse"
       x1="15"
       y1="1"
       x2="15"
       y2="16" />
    <linearGradient
       inkscape:collect="always"
       xlink:href="#linearGradient4152"
       id="linearGradient4256"
       gradientUnits="userSpaceOnUse"
       x1="15"
       y1="1"
       x2="15"
       y2="16" />
    <linearGradient
       inkscape:collect="always"
       xlink:href="#linearGradient4152"
       id="linearGradient4258"
       x1="15"
       y1="1"
       x2="15"
       y2="16"
       gradientUnits="userSpaceOnUse" />
    <linearGradient
       inkscape:collect="always"
       xlink:href="#linearGradient913"
       id="linearGradient4272"
       gradientUnits="userSpaceOnUse"
       x1="15"
       y1="18"
       x2="15"
       y2="33"
       gradientTransform="translate(0,-17)" />
    <linearGradient
       inkscape:collect="always"
       xlink:href="#linearGradient913"
       id="linearGradient4274"
       gradientUnits="userSpaceOnUse"
       x1="45"
       y1="18"
       x2="45"
       y2="33"
       gradientTransform="translate(0,-17)" />
    <linearGradient
       inkscape:collect="always"
       xlink:href="#linearGradient913"
       id="linearGradient4276"
       gradientUnits="userSpaceOnUse"
       x1="75"
       y1="18"
       x2="75"
       y2="33"
       gradientTransform="translate(0,-17)" />
    <linearGradient
       inkscape:collect="always"
       xlink:href="#linearGradient913"
       id="linearGradient4278"
       gradientUnits="userSpaceOnUse"
       x1="105"
       y1="18"
       x2="105"
       y2="33"
       gradientTransform="translate(0,-17)" />
    <linearGradient
       inkscape:collect="always"
       xlink:href="#linearGradient4152"
       id="linearGradient4279"
       gradientUnits="userSpaceOnUse"
       x1="15"
       y1="1"
       x2="15"
       y2="16" />
    <linearGradient
       inkscape:collect="always"
       xlink:href="#linearGradient4152"
       id="linearGradient4281"
       gradientUnits="userSpaceOnUse"
       x1="15"
       y1="1"
       x2="15"
       y2="16" />
    <linearGradient
       inkscape:collect="always"
       xlink:href="#linearGradient4152"
       id="linearGradient4283"
       x1="15"
       y1="1"
       x2="15"
       y2="16"
       gradientUnits="userSpaceOnUse" />
    <linearGradient
       inkscape:collect="always"
       xlink:href="#linearGradient913"
       id="linearGradient4297"
       gradientUnits="userSpaceOnUse"
       x1="15"
       y1="43"
       x2="15"
       y2="58"
       gradientTransform="translate(0,-34)" />
    <linearGradient
       inkscape:collect="always"
       xlink:href="#linearGradient913"
       id="linearGradient4299"
       gradientUnits="userSpaceOnUse"
       x1="15"
       y1="1"
       x2="14.797167"
       y2="105.85513"
       gradientTransform="translate(0,-34)" />
    <linearGradient
       inkscape:collect="always"
       xlink:href="#linearGradient913"
       id="linearGradient4301"
       gradientUnits="userSpaceOnUse"
       x1="15"
       y1="1"
       x2="14.3915"
       y2="106.2608"
       gradientTransform="translate(0,-34)" />
    <linearGradient
       inkscape:collect="always"
       xlink:href="#linearGradient913"
       id="linearGradient4303"
       gradientUnits="userSpaceOnUse"
       x1="15"
       y1="1"
       x2="10"
       y2="148"
       gradientTransform="translate(0,-34)" />
    <linearGradient
       inkscape:collect="always"
       xlink:href="#linearGradient4152"
       id="linearGradient4404"
       gradientUnits="userSpaceOnUse"
       x1="15"
       y1="1"
       x2="15"
       y2="16" />
    <linearGradient
       inkscape:collect="always"
       xlink:href="#linearGradient4152"
       id="linearGradient4406"
       gradientUnits="userSpaceOnUse"
       x1="15"
       y1="1"
       x2="15"
       y2="16" />
    <linearGradient
       inkscape:collect="always"
       xlink:href="#linearGradient4152"
       id="linearGradient4408"
       x1="15"
       y1="1"
       x2="15"
       y2="16"
       gradientUnits="userSpaceOnUse" />
    <linearGradient
       inkscape:collect="always"
       xlink:href="#linearGradient913"
       id="linearGradient4422"
       gradientUnits="userSpaceOnUse"
       x1="15"
       y1="51"
       x2="15"
       y2="68"
       gradientTransform="translate(0,-51)" />
    <linearGradient
       inkscape:collect="always"
       xlink:href="#linearGradient913"
       id="linearGradient4424"
       gradientUnits="userSpaceOnUse"
       x1="53.682468"
       y1="51"
       x2="53.682468"
       y2="68"
       gradientTransform="translate(0,-51)" />
    <linearGradient
       inkscape:collect="always"
       xlink:href="#linearGradient913"
       id="linearGradient4426"
       gradientUnits="userSpaceOnUse"
       x1="80"
       y1="51"
       x2="80"
       y2="68"
       gradientTransform="translate(0,-51)" />
    <linearGradient
       inkscape:collect="always"
       xlink:href="#linearGradient913"
       id="linearGradient4428"
       gradientUnits="userSpaceOnUse"
       x1="106.43375"
       y1="51"
       x2="106.43375"
       y2="68"
       gradientTransform="translate(0,-51)" />
  </defs>
  <sodipodi:namedview
     pagecolor="#ffffff"
     bordercolor="#666666"
     borderopacity="1"
     objecttolerance="10"
     gridtolerance="10000"
     guidetolerance="10"
     inkscape:pageopacity="0"
     inkscape:pageshadow="2"
     inkscape:window-width="1680"
     inkscape:window-height="990"
     id="namedview4"
     showgrid="true"
     inkscape:zoom="6.9722962"
     inkscape:cx="82.135466"
     inkscape:cy="25.36981"
     inkscape:window-x="0"
     inkscape:window-y="0"
     inkscape:window-maximized="1"
     inkscape:current-layer="svg2"
     showguides="false">
    <inkscape:grid
       type="xygrid"
       id="grid3338"
       empspacing="1"
       visible="false" />
  </sodipodi:namedview>
  <g
     id="button-minimize-active"
     inkscape:label="button-minimize-active">
    <rect
       y="0.5"
       x="0.5"
       height="16"
       width="30"
       id="rect4150"
       style="opacity:1;fill:url(#linearGradient4158);fill-opacity:1;fill-rule:evenodd;stroke:#001023;stroke-width:1;stroke-linecap:square;stroke-miterlimit:4;stroke-dasharray:none;stroke-opacity:1"
       ry="8" />
    <path
       inkscape:connector-curvature="0"
       id="path4187"
       d="m 10.5,10 0,-1.5 5,0 5,0 0,1.5 0,1.5 -5,0 -5,0 0,-1.5 z"
       style="fill:#ffffff;fill-opacity:1;fill-rule:evenodd;stroke:#000000;stroke-width:1;stroke-linecap:square;stroke-linejoin:miter;stroke-miterlimit:4;stroke-dasharray:none;stroke-opacity:1" />
  </g>
  <g
     id="button-maximize-active"
     style="stroke:#000000;stroke-opacity:1">
    <rect
       y="0.5"
       x="31.5"
       height="16"
       width="30"
       id="rect4150-3"
       style="opacity:1;fill:url(#linearGradient4216);fill-opacity:1;fill-rule:evenodd;stroke:#000000;stroke-width:1;stroke-linecap:square;stroke-miterlimit:4;stroke-dasharray:none;stroke-opacity:1"
       ry="8" />
    <path
       inkscape:connector-curvature="0"
       id="path4220"
       d="m 41.5,8.5000002 0,-4 5,0 5,0 0,4 0,3.9999998 -5,0 -5,0 z m 7.735849,0 0,-1.0000002 -2.735849,0 -2.73585,0 0,1.0000002 0,1.9999998 2.73585,0 2.735849,0 z"
       style="opacity:1;fill:#ffffff;fill-opacity:1;fill-rule:evenodd;stroke:#000000;stroke-width:0.99999994;stroke-linecap:square;stroke-linejoin:miter;stroke-miterlimit:4;stroke-dasharray:none;stroke-opacity:1"
       sodipodi:nodetypes="cccccccccccccccccc" />
  </g>
  <g
     id="button-unmaximize-active"
     style="stroke:#000000;stroke-opacity:1">
    <rect
       y="0.5"
       x="62.5"
       height="16"
       width="30"
       id="rect4150-3-1"
       style="opacity:1;fill:url(#linearGradient4295);fill-opacity:1;fill-rule:evenodd;stroke:#000000;stroke-width:1;stroke-linecap:square;stroke-miterlimit:4;stroke-dasharray:none;stroke-opacity:1"
       ry="8" />
    <path
       sodipodi:nodetypes="ccsccccccccccccccccccccccc"
       inkscape:connector-curvature="0"
       id="path4266"
       d="m 71.5,5.5111132 4.027051,0 0,-1.504144 0,-1.504145 7.925581,0.04466 0.04456,7.9459428 -4.028763,0 0,3.006573 -7.968421,0 z m 4.969553,4.5098598 0,-0.472462 -0.985343,0 -0.985342,0 0,0.472462 0,0.472461 0.985342,0 0.985343,0 z m 4.027051,-3.4790348 -0.514091,0 -0.514092,0 c 0,0.3436083 0,0.6872167 0,1.030825 l 0.514092,0 0.514091,0 c 0,-0.3436083 0,-0.6872167 0,-1.030825 z"
       style="opacity:1;fill:#ffffff;fill-opacity:1;fill-rule:evenodd;stroke:#000000;stroke-width:1;stroke-linecap:square;stroke-linejoin:miter;stroke-miterlimit:5.5999999;stroke-dasharray:none;stroke-opacity:1" />
  </g>
  <g
     id="button-close-active"
     inkscape:label="button-close-active"
     style="stroke:#000000;stroke-opacity:1">
    <rect
       y="0.5"
       x="93.5"
       height="16"
       width="30"
       id="rect4150-36"
       style="opacity:1;fill:url(#linearGradient4357);fill-opacity:1;fill-rule:evenodd;stroke:#000000;stroke-width:1;stroke-linecap:square;stroke-miterlimit:4;stroke-dasharray:none;stroke-opacity:1"
       ry="8" />
    <path
       sodipodi:nodetypes="ccccccccccccccccccccccccccccccccccccccccccccccccccccccccccccccccccccccccccccccccccccccccc"
       inkscape:connector-curvature="0"
       id="path4328"
       d="m 103.5625,12.524475 0,-0.975524 0.46875,0 0.46875,0 0,-0.503497 0,-0.503496 0.5,0 0.5,0 0,-0.503497 0,-0.503496 0.5,0 0.5,0 0,-0.5034965 0,-0.5034965 -0.5,0 -0.5,0 0,-0.5034965 0,-0.5034965 -0.5,0 -0.5,0 0,-0.5034965 0,-0.5034965 -0.5,0 -0.5,0 0,-1.006993 0,-1.006993 2,0 2,0 0,0.5034965 0,0.493007 0.5,0.00699 0.5,0 0,0.506993 0,0.5034965 0.5,0 0.5,0 0,-0.5034965 0,-0.506993 0.5,0 0.5,0 0,-0.5 0,-0.5034965 2,0 2,0 0,1.006993 0,1.006993 -0.5,0 -0.5,0 0,0.5034965 0,0.5034965 -0.5,0 -0.5,0 0,0.5034965 0,0.5034965 -0.5,0 -0.5,0 0,0.5034965 0,0.5034965 0.5,0 0.5,0 0,0.503496 0,0.503497 0.5,0 0.5,0 0,0.503496 0,0.503497 0.5,0 0.5,0 0,0.975524 0,0.975525 -2,0 -2,0 0,-0.472028 0,-0.527972 -0.5,0 -0.5,0 0,-0.447553 0,-0.552447 -0.5,0 -0.5,0 0,0.552447 0,0.447553 -0.5,0 -0.5,0 0,0.527972 0,0.472028 -1.96875,0 -1.96875,0 z"
       style="opacity:1;fill:#ffffff;fill-opacity:1;fill-rule:evenodd;stroke:#000000;stroke-width:1;stroke-linecap:square;stroke-linejoin:miter;stroke-miterlimit:5.5999999;stroke-dasharray:none;stroke-opacity:1" />
  </g>
  <g
     id="button-minimize-hover"
     inkscape:label="button-minimize-hover"
     transform="translate(0,17)">
    <rect
       y="0.5"
       x="0.5"
       height="16"
       width="30"
       id="rect4150-5"
       style="opacity:1;fill:url(#linearGradient4272);fill-opacity:1;fill-rule:evenodd;stroke:#69aeff;stroke-width:1;stroke-linecap:square;stroke-miterlimit:4;stroke-dasharray:none;stroke-opacity:1"
       ry="8" />
    <path
       inkscape:connector-curvature="0"
       id="path4187-6"
       d="m 10.5,10 0,-1.5 5,0 5,0 0,1.5 0,1.5 -5,0 -5,0 0,-1.5 z"
       style="fill:#ffffff;fill-opacity:1;fill-rule:evenodd;stroke:#69aeff;stroke-width:1;stroke-linecap:square;stroke-linejoin:miter;stroke-miterlimit:4;stroke-dasharray:none;stroke-opacity:1" />
  </g>
  <g
     id="button-maximize-hover"
     transform="translate(0,17)"
     style="stroke:#69aeff;stroke-opacity:1">
    <rect
       y="0.5"
       x="31.5"
       height="16"
       width="30"
       id="rect4150-3-9"
       style="opacity:1;fill:url(#linearGradient4274);fill-opacity:1;fill-rule:evenodd;stroke:#69aeff;stroke-width:1;stroke-linecap:square;stroke-miterlimit:4;stroke-dasharray:none;stroke-opacity:1"
       ry="8" />
    <path
       inkscape:connector-curvature="0"
       id="path4220-1"
       d="m 41.5,8.5000002 0,-4 5,0 5,0 0,4 0,3.9999998 -5,0 -5,0 z m 7.735849,0 0,-1.0000002 -2.735849,0 -2.73585,0 0,1.0000002 0,1.9999998 2.73585,0 2.735849,0 z"
       style="opacity:1;fill:#ffffff;fill-opacity:1;fill-rule:evenodd;stroke:#69aeff;stroke-width:0.99999994;stroke-linecap:square;stroke-linejoin:miter;stroke-miterlimit:4;stroke-dasharray:none;stroke-opacity:1"
       sodipodi:nodetypes="cccccccccccccccccc" />
  </g>
  <g
     id="button-unmaximize-hover"
     transform="translate(0,17)"
     style="stroke:#69aeff;stroke-opacity:1">
    <rect
       y="0.5"
       x="62.5"
       height="16"
       width="30"
       id="rect4150-3-1-7"
       style="opacity:1;fill:url(#linearGradient4276);fill-opacity:1;fill-rule:evenodd;stroke:#69aeff;stroke-width:1;stroke-linecap:square;stroke-miterlimit:4;stroke-dasharray:none;stroke-opacity:1"
       ry="8" />
    <path
       sodipodi:nodetypes="ccsccccccccccccccccccccccc"
       inkscape:connector-curvature="0"
       id="path4266-0"
       d="m 71.5,5.5111132 4.027051,0 0,-1.504144 0,-1.504145 7.925581,0.04466 0.04456,7.9459428 -4.028763,0 0,3.006573 -7.968421,0 z m 4.969553,4.5098598 0,-0.472462 -0.985343,0 -0.985342,0 0,0.472462 0,0.472461 0.985342,0 0.985343,0 z m 4.027051,-3.4790348 -0.514091,0 -0.514092,0 c 0,0.3436083 0,0.6872167 0,1.030825 l 0.514092,0 0.514091,0 c 0,-0.3436083 0,-0.6872167 0,-1.030825 z"
       style="opacity:1;fill:#ffffff;fill-opacity:1;fill-rule:evenodd;stroke:#69aeff;stroke-width:1;stroke-linecap:square;stroke-linejoin:miter;stroke-miterlimit:5.5999999;stroke-dasharray:none;stroke-opacity:1" />
  </g>
  <g
     id="button-close-hover"
     inkscape:label="button-close-hover"
     transform="translate(0,17)"
     style="stroke:#69aeff;stroke-opacity:1">
    <rect
       y="0.5"
       x="93.5"
       height="16"
       width="30"
       id="rect4150-36-3"
       style="opacity:1;fill:url(#linearGradient4278);fill-opacity:1;fill-rule:evenodd;stroke:#69aeff;stroke-width:1;stroke-linecap:square;stroke-miterlimit:4;stroke-dasharray:none;stroke-opacity:1"
       ry="8" />
    <path
       sodipodi:nodetypes="ccccccccccccccccccccccccccccccccccccccccccccccccccccccccccccccccccccccccccccccccccccccccc"
       inkscape:connector-curvature="0"
       id="path4328-6"
       d="m 103.5625,12.524475 0,-0.975524 0.46875,0 0.46875,0 0,-0.503497 0,-0.503496 0.5,0 0.5,0 0,-0.503497 0,-0.503496 0.5,0 0.5,0 0,-0.5034965 0,-0.5034965 -0.5,0 -0.5,0 0,-0.5034965 0,-0.5034965 -0.5,0 -0.5,0 0,-0.5034965 0,-0.5034965 -0.5,0 -0.5,0 0,-1.006993 0,-1.006993 2,0 2,0 0,0.5034965 0,0.493007 0.5,0.00699 0.5,0 0,0.506993 0,0.5034965 0.5,0 0.5,0 0,-0.5034965 0,-0.506993 0.5,0 0.5,0 0,-0.5 0,-0.5034965 2,0 2,0 0,1.006993 0,1.006993 -0.5,0 -0.5,0 0,0.5034965 0,0.5034965 -0.5,0 -0.5,0 0,0.5034965 0,0.5034965 -0.5,0 -0.5,0 0,0.5034965 0,0.5034965 0.5,0 0.5,0 0,0.503496 0,0.503497 0.5,0 0.5,0 0,0.503496 0,0.503497 0.5,0 0.5,0 0,0.975524 0,0.975525 -2,0 -2,0 0,-0.472028 0,-0.527972 -0.5,0 -0.5,0 0,-0.447553 0,-0.552447 -0.5,0 -0.5,0 0,0.552447 0,0.447553 -0.5,0 -0.5,0 0,0.527972 0,0.472028 -1.96875,0 -1.96875,0 z"
       style="opacity:1;fill:#ffffff;fill-opacity:1;fill-rule:evenodd;stroke:#69aeff;stroke-width:1;stroke-linecap:square;stroke-linejoin:miter;stroke-miterlimit:5.5999999;stroke-dasharray:none;stroke-opacity:1" />
  </g>
  <g
     id="button-minimize-inactive"
     inkscape:label="button-minimize-inactive"
     transform="translate(0,34)">
    <rect
       y="0.5"
       x="0.5"
       height="16"
       width="30"
       id="rect4150-56"
       style="opacity:1;fill:url(#linearGradient4297);fill-opacity:1.0;fill-rule:evenodd;stroke:#567090;stroke-width:1;stroke-linecap:square;stroke-miterlimit:4;stroke-dasharray:none;stroke-opacity:1"
       ry="8" />
    <path
       inkscape:connector-curvature="0"
       id="path4187-2"
       d="m 10.5,10 0,-1.5 5,0 5,0 0,1.5 0,1.5 -5,0 -5,0 0,-1.5 z"
       style="fill:#ffffff;fill-opacity:1;fill-rule:evenodd;stroke:#567090;stroke-width:1;stroke-linecap:square;stroke-linejoin:miter;stroke-miterlimit:4;stroke-dasharray:none;stroke-opacity:1" />
  </g>
  <g
     id="button-maximize-inactive"
     transform="translate(0,34)">
    <rect
       y="0.5"
       x="31.5"
       height="16"
       width="30"
       id="rect4150-3-12"
       style="opacity:1;fill:url(#linearGradient4299);fill-opacity:1.0;fill-rule:evenodd;stroke:#567090;stroke-width:1;stroke-linecap:square;stroke-miterlimit:4;stroke-dasharray:none;stroke-opacity:1"
       ry="8" />
    <path
       inkscape:connector-curvature="0"
       id="path4220-7"
       d="m 41.5,8.5000002 0,-4 5,0 5,0 0,4 0,3.9999998 -5,0 -5,0 z m 7.735849,0 0,-1.0000002 -2.735849,0 -2.73585,0 0,1.0000002 0,1.9999998 2.73585,0 2.735849,0 z"
       style="opacity:1;fill:#ffffff;fill-opacity:1;fill-rule:evenodd;stroke:#567090;stroke-width:0.99999994;stroke-linecap:square;stroke-linejoin:miter;stroke-miterlimit:4;stroke-dasharray:none;stroke-opacity:1"
       sodipodi:nodetypes="cccccccccccccccccc" />
  </g>
  <g
     id="button-unmaximize-inactive"
     transform="translate(0,34)">
    <rect
       y="0.5"
       x="62.5"
       height="16"
       width="30"
       id="rect4150-3-1-9"
       style="opacity:1;fill:url(#linearGradient4301);fill-opacity:1.0;fill-rule:evenodd;stroke:#567090;stroke-width:1;stroke-linecap:square;stroke-miterlimit:4;stroke-dasharray:none;stroke-opacity:1"
       ry="8" />
    <path
       sodipodi:nodetypes="ccsccccccccccccccccccccccc"
       inkscape:connector-curvature="0"
       id="path4266-3"
       d="m 71.5,5.5111132 4.027051,0 0,-1.504144 0,-1.504145 7.925581,0.04466 0.04456,7.9459428 -4.028763,0 0,3.006573 -7.968421,0 z m 4.969553,4.5098598 0,-0.472462 -0.985343,0 -0.985342,0 0,0.472462 0,0.472461 0.985342,0 0.985343,0 z m 4.027051,-3.4790348 -0.514091,0 -0.514092,0 c 0,0.3436083 0,0.6872167 0,1.030825 l 0.514092,0 0.514091,0 c 0,-0.3436083 0,-0.6872167 0,-1.030825 z"
       style="opacity:1;fill:#ffffff;fill-opacity:1;fill-rule:evenodd;stroke:#567090;stroke-width:1;stroke-linecap:square;stroke-linejoin:miter;stroke-miterlimit:5.5999999;stroke-dasharray:none;stroke-opacity:1" />
  </g>
  <g
     id="button-close-inactive"
     inkscape:label="button-close-inactive"
     transform="translate(0,34)">
    <rect
       y="0.5"
       x="93.5"
       height="16"
       width="30"
       id="rect4150-36-0"
       style="opacity:1;fill:url(#linearGradient4303);fill-opacity:1.0;fill-rule:evenodd;stroke:#567090;stroke-width:1;stroke-linecap:square;stroke-miterlimit:4;stroke-dasharray:none;stroke-opacity:1"
       ry="8" />
    <path
       sodipodi:nodetypes="ccccccccccccccccccccccccccccccccccccccccccccccccccccccccccccccccccccccccccccccccccccccccc"
       inkscape:connector-curvature="0"
       id="path4328-62"
       d="m 103.5625,12.524475 0,-0.975524 0.46875,0 0.46875,0 0,-0.503497 0,-0.503496 0.5,0 0.5,0 0,-0.503497 0,-0.503496 0.5,0 0.5,0 0,-0.5034965 0,-0.5034965 -0.5,0 -0.5,0 0,-0.5034965 0,-0.5034965 -0.5,0 -0.5,0 0,-0.5034965 0,-0.5034965 -0.5,0 -0.5,0 0,-1.006993 0,-1.006993 2,0 2,0 0,0.5034965 0,0.493007 0.5,0.00699 0.5,0 0,0.506993 0,0.5034965 0.5,0 0.5,0 0,-0.5034965 0,-0.506993 0.5,0 0.5,0 0,-0.5 0,-0.5034965 2,0 2,0 0,1.006993 0,1.006993 -0.5,0 -0.5,0 0,0.5034965 0,0.5034965 -0.5,0 -0.5,0 0,0.5034965 0,0.5034965 -0.5,0 -0.5,0 0,0.5034965 0,0.5034965 0.5,0 0.5,0 0,0.503496 0,0.503497 0.5,0 0.5,0 0,0.503496 0,0.503497 0.5,0 0.5,0 0,0.975524 0,0.975525 -2,0 -2,0 0,-0.472028 0,-0.527972 -0.5,0 -0.5,0 0,-0.447553 0,-0.552447 -0.5,0 -0.5,0 0,0.552447 0,0.447553 -0.5,0 -0.5,0 0,0.527972 0,0.472028 -1.96875,0 -1.96875,0 z"
       style="opacity:1;fill:#ffffff;fill-opacity:1;fill-rule:evenodd;stroke:#567090;stroke-width:1;stroke-linecap:square;stroke-linejoin:miter;stroke-miterlimit:5.5999999;stroke-dasharray:none;stroke-opacity:1" />
  </g>
  <g
     id="button-minimize-pressed"
     inkscape:label="button-minimize-pressed"
     transform="translate(0,51)">
    <rect
       y="0.5"
       x="0.5"
       height="16"
       width="30"
       id="rect4150-2"
       style="opacity:1;fill:url(#linearGradient4422);fill-opacity:1;fill-rule:evenodd;stroke:#000000;stroke-width:1;stroke-linecap:square;stroke-miterlimit:4;stroke-dasharray:none;stroke-opacity:1"
       ry="8" />
    <path
       inkscape:connector-curvature="0"
       id="path4187-0"
       d="m 10.5,10 0,-1.5 5,0 5,0 0,1.5 0,1.5 -5,0 -5,0 0,-1.5 z"
       style="fill:#ffffff;fill-opacity:1;fill-rule:evenodd;stroke:#567090;stroke-width:1;stroke-linecap:square;stroke-linejoin:miter;stroke-miterlimit:4;stroke-dasharray:none;stroke-opacity:1" />
  </g>
  <g
     id="button-maximize-pressed"
     transform="translate(0,51)">
    <rect
       y="0.5"
       x="31.5"
       height="16"
       width="30"
       id="rect4150-3-3"
       style="opacity:1;fill:url(#linearGradient4424);fill-opacity:1;fill-rule:evenodd;stroke:#0b0b0b;stroke-width:1;stroke-linecap:square;stroke-miterlimit:4;stroke-dasharray:none;stroke-opacity:1"
       ry="8" />
    <path
       inkscape:connector-curvature="0"
       id="path4220-75"
       d="m 41.5,8.5000002 0,-4 5,0 5,0 0,4 0,3.9999998 -5,0 -5,0 z m 7.735849,0 0,-1.0000002 -2.735849,0 -2.73585,0 0,1.0000002 0,1.9999998 2.73585,0 2.735849,0 z"
       style="opacity:1;fill:#ffffff;fill-opacity:1;fill-rule:evenodd;stroke:#567090;stroke-width:0.99999994;stroke-linecap:square;stroke-linejoin:miter;stroke-miterlimit:4;stroke-dasharray:none;stroke-opacity:1"
       sodipodi:nodetypes="cccccccccccccccccc" />
  </g>
  <g
     id="button-unmaximize-pressed"
     transform="translate(0,51)">
    <rect
       y="0.5"
       x="62.5"
       height="16"
       width="30"
       id="rect4150-3-1-2"
       style="opacity:1;fill:url(#linearGradient4426);fill-opacity:1;fill-rule:evenodd;stroke:#000000;stroke-width:1;stroke-linecap:square;stroke-miterlimit:4;stroke-dasharray:none;stroke-opacity:1"
       ry="8" />
    <path
       sodipodi:nodetypes="ccsccccccccccccccccccccccc"
       inkscape:connector-curvature="0"
       id="path4266-2"
       d="m 71.5,5.5111132 4.027051,0 0,-1.504144 0,-1.504145 7.925581,0.04466 0.04456,7.9459428 -4.028763,0 0,3.006573 -7.968421,0 z m 4.969553,4.5098598 0,-0.472462 -0.985343,0 -0.985342,0 0,0.472462 0,0.472461 0.985342,0 0.985343,0 z m 4.027051,-3.4790348 -0.514091,0 -0.514092,0 c 0,0.3436083 0,0.6872167 0,1.030825 l 0.514092,0 0.514091,0 c 0,-0.3436083 0,-0.6872167 0,-1.030825 z"
       style="opacity:1;fill:#ffffff;fill-opacity:1;fill-rule:evenodd;stroke:#567090;stroke-width:1;stroke-linecap:square;stroke-linejoin:miter;stroke-miterlimit:5.5999999;stroke-dasharray:none;stroke-opacity:1" />
  </g>
  <g
     id="button-close-pressed"
     inkscape:label="button-close-pressed"
     transform="translate(0,51)">
    <rect
       y="0.5"
       x="93.5"
       height="16"
       width="30"
       id="rect4150-36-9"
       style="opacity:1;fill:url(#linearGradient4428);fill-opacity:1;fill-rule:evenodd;stroke:#000000;stroke-width:1;stroke-linecap:square;stroke-miterlimit:4;stroke-dasharray:none;stroke-opacity:1"
       ry="8" />
    <path
       sodipodi:nodetypes="ccccccccccccccccccccccccccccccccccccccccccccccccccccccccccccccccccccccccccccccccccccccccc"
       inkscape:connector-curvature="0"
       id="path4328-7"
       d="m 103.5625,12.524475 0,-0.975524 0.46875,0 0.46875,0 0,-0.503497 0,-0.503496 0.5,0 0.5,0 0,-0.503497 0,-0.503496 0.5,0 0.5,0 0,-0.5034965 0,-0.5034965 -0.5,0 -0.5,0 0,-0.5034965 0,-0.5034965 -0.5,0 -0.5,0 0,-0.5034965 0,-0.5034965 -0.5,0 -0.5,0 0,-1.006993 0,-1.006993 2,0 2,0 0,0.5034965 0,0.493007 0.5,0.00699 0.5,0 0,0.506993 0,0.5034965 0.5,0 0.5,0 0,-0.5034965 0,-0.506993 0.5,0 0.5,0 0,-0.5 0,-0.5034965 2,0 2,0 0,1.006993 0,1.006993 -0.5,0 -0.5,0 0,0.5034965 0,0.5034965 -0.5,0 -0.5,0 0,0.5034965 0,0.5034965 -0.5,0 -0.5,0 0,0.5034965 0,0.5034965 0.5,0 0.5,0 0,0.503496 0,0.503497 0.5,0 0.5,0 0,0.503496 0,0.503497 0.5,0 0.5,0 0,0.975524 0,0.975525 -2,0 -2,0 0,-0.472028 0,-0.527972 -0.5,0 -0.5,0 0,-0.447553 0,-0.552447 -0.5,0 -0.5,0 0,0.552447 0,0.447553 -0.5,0 -0.5,0 0,0.527972 0,0.472028 -1.96875,0 -1.96875,0 z"
       style="opacity:1;fill:#ffffff;fill-opacity:1;fill-rule:evenodd;stroke:#567090;stroke-width:1;stroke-linecap:square;stroke-linejoin:miter;stroke-miterlimit:5.5999999;stroke-dasharray:none;stroke-opacity:1" />
  </g>
</svg>
